0339:752f:0014:0000:0000:0000:0000:0000/48 27a0:b1f0:25fe:746d:aeb7:aa07:e58c:5abf
2001:01e0:4000:0000:0000:0000:0000:0000/48 e0f9:3a7f:9a8e:17ef:74c0:16fb:f362:c16b
2001:0200:0600:0000:0000:0000:0000:0000/48 0646:1c5d:3e58:093a:c711:3044:d7f6:623d
2001:0200:0601:0000:0000:0000:0000:0000/48 0646:1c5d:3e58:093a:c711:3044:d7f6:623d
2001:0200:0602:0000:0000:0000:0000:0000/48 0646:1c5d:3e58:093a:c711:3044:d7f6:623d
2001:0200:0603:0000:0000:0000:0000:0000/48 0646:1c5d:3e58:093a:c711:3044:d7f6:623d
2001:0200:0604:0000:0000:0000:0000:0000/48 0646:1c5d:3e58:093a:c711:3044:d7f6:623d
2001:0200:0605:0000:0000:0000:0000:0000/48 0646:1c5d:3e58:093a:c711:3044:d7f6:623d
2001:0200:0606:0000:0000:0000:0000:0000/48 0646:1c5d:3e58:093a:c711:3044:d7f6:623d
2001:0200:0607:0000:0000:0000:0000:0000/48 0646:1c5d:3e58:093a:c711:3044:d7f6:623d
2001:0200:0608:0000:0000:0000:0000:0000/48 0646:1c5d:3e58:093a:c711:3044:d7f6:623d
2001:0200:0609:0000:0000:0000:0000:0000/48 0646:1c5d:3e58:093a:c711:3044:d7f6:623d
2001:0200:060a:0000:0000:0000:0000:0000/48 0646:1c5d:3e58:093a:c711:3044:d7f6:623d
2001:0200:060b:0000:0000:0000:0000:0000/48 0646:1c5d:3e58:093a:c711:3044:d7f6:623d
2001:0200:060c:0000:0000:0000:0000:0000/48 0646:1c5d:3e58:093a:c711:3044:d7f6:623d
2001:0200:060d:0000:0000:0000:0000:0000/48 0646:1c5d:3e58:093a:c711:3044:d7f6:623d
2001:0200:060e:0000:0000:0000:0000:0000/48 0646:1c5d:3e58:093a:c711:3044:d7f6:623d
2001:0200:060f:0000:0000:0000:0000:0000/48 0646:1c5d:3e58:093a:c711:3044:d7f6:623d
2001:0200:0610:0000:0000:0000:0000:0000/48 0646:1c5d:3e58:093a:c711:3044:d7f6:623d
2001:0200:0611:0000:0000:0000:0000:0000/48 0646:1c5d:3e58:093a:c711:3044:d7f6:623d
2001:0200:0612:0000:0000:0000:0000:0000/48 0646:1c5d:3e58:093a:c711:3044:d7f6:623d
2001:0200:0613:0000:0000:0000:0000:0000/48 0646:1c5d:3e58:093a:c711:3044:d7f6:623d
2001:0200:0614:0000:0000:0000:0000:0000/48 0646:1c5d:3e58:093a:c711:3044:d7f6:623d
2001:0200:0615:0000:0000:0000:0000:0000/48 0646:1c5d:3e58:093a:c711:3044:d7f6:623d
2001:0200:0616:0000:0000:0000:0000:0000/48 0646:1c5d:3e58:093a:c711:3044:d7f6:623d
2001:0200:0617:0000:0000:0000:0000:0000/48 0646:1c5d:3e58:093a:c711:3044:d7f6:623d
2001:0200:0618:0000:0000:0000:0000:0000/48 0646:1c5d:3e58:093a:c711:3044:d7f6:623d
2001:0200:0619:0000:0000:0000:0000:0000/48 0646:1c5d:3e58:093a:c711:3044:d7f6:623d
2001:0200:061a:0000:0000:0000:0000:0000/48 0646:1c5d:3e58:093a:c711:3044:d7f6:623d
2001:0200:061b:0000:0000:0000:0000:0000/48 0646:1c5d:3e58:093a:c711:3044:d7f6:623d
2001:0200:061c:0000:0000:0000:0000:0000/48 0646:1c5d:3e58:093a:c711:3044:d7f6:623d
2001:0200:061d:0000:0000:0000:0000:0000/48 0646:1c5d:3e58:093a:c711:3044:d7f6:623d
2001:0200:061e:0000:0000:0000:0000:0000/48 0646:1c5d:3e58:093a:c711:3044:d7f6:623d
2001:0200:061f:0000:0000:0000:0000:0000/48 0646:1c5d:3e58:093a:c711:3044:d7f6:623d
2001:0200:0620:0000:0000:0000:0000:0000/48 0646:1c5d:3e58:093a:c711:3044:d7f6:623d
2001:0200:0621:0000:0000:0000:0000:0000/48 0646:1c5d:3e58:093a:c711:3044:d7f6:623d
2001:0200:0622:0000:0000:0000:0000:0000/48 0646:1c5d:3e58:093a:c711:3044:d7f6:623d
2001:0200:0623:0000:0000:0000:0000:0000/48 0646:1c5d:3e58:093a:c711:3044:d7f6:623d
2001:0200:0624:0000:0000:0000:0000:0000/48 0646:1c5d:3e58:093a:c711:3044:d7f6:623d
2001:0200:0625:0000:0000:0000:0000:0000/48 0646:1c5d:3e58:093a:c711:3044:d7f6:623d
2001:0200:0626:0000:0000:0000:0000:0000/48 0646:1c5d:3e58:093a:c711:3044:d7f6:623d
2001:0200:0627:0000:0000:0000:0000:0000/48 0646:1c5d:3e58:093a:c711:3044:d7f6:623d
2001:0200:0628:0000:0000:0000:0000:0000/48 0646:1c5d:3e58:093a:c711:3044:d7f6:623d
2001:0200:0629:0000:0000:0000:0000:0000/48 0646:1c5d:3e58:093a:c711:3044:d7f6:623d
2001:0200:062a:0000:0000:0000:0000:0000/48 0646:1c5d:3e58:093a:c711:3044:d7f6:623d
2001:0200:062b:0000:0000:0000:0000:0000/48 0646:1c5d:3e58:093a:c711:3044:d7f6:623d
2001:0200:062c:0000:0000:0000:0000:0000/48 0646:1c5d:3e58:093a:c711:3044:d7f6:623d
2001:0200:062d:0000:0000:0000:0000:0000/48 0646:1c5d:3e58:093a:c711:3044:d7f6:623d
2001:0200:062e:0000:0000:0000:0000:0000/48 0646:1c5d:3e58:093a:c711:3044:d7f6:623d
2001:0200:062f:0000:0000:0000:0000:0000/48 0646:1c5d:3e58:093a:c711:3044:d7f6:623d
2001:0200:0630:0000:0000:0000:0000:0000/48 0646:1c5d:3e58:093a:c711:3044:d7f6:623d
2001:0200:0631:0000:0000:0000:0000:0000/48 0646:1c5d:3e58:093a:c711:3044:d7f6:623d
2001:0200:0632:0000:0000:0000:0000:0000/48 0646:1c5d:3e58:093a:c711:3044:d7f6:623d
2001:0200:0633:0000:0000:0000:0000:0000/48 0646:1c5d:3e58:093a:c711:3044:d7f6:623d
2001:0200:0634:0000:0000:0000:0000:0000/48 0646:1c5d:3e58:093a:c711:3044:d7f6:623d
2001:0200:0635:0000:0000:0000:0000:0000/48 0646:1c5d:3e58:093a:c711:3044:d7f6:623d
2001:0200:0636:0000:0000:0000:0000:0000/48 0646:1c5d:3e58:093a:c711:3044:d7f6:623d
2001:0200:0637:0000:0000:0000:0000:0000/48 0646:1c5d:3e58:093a:c711:3044:d7f6:623d
2001:0200:0638:0000:0000:0000:0000:0000/48 0646:1c5d:3e58:093a:c711:3044:d7f6:623d
2001:0200:0639:0000:0000:0000:0000:0000/48 0646:1c5d:3e58:093a:c711:3044:d7f6:623d
2001:0200:063a:0000:0000:0000:0000:0000/48 0646:1c5d:3e58:093a:c711:3044:d7f6:623d
2001:0200:063b:0000:0000:0000:0000:0000/48 0646:1c5d:3e58:093a:c711:3044:d7f6:623d
2001:0200:063c:0000:0000:0000:0000:0000/48 0646:1c5d:3e58:093a:c711:3044:d7f6:623d
2001:0200:063d:0000:0000:0000:0000:0000/48 0646:1c5d:3e58:093a:c711:3044:d7f6:623d
2001:0200:063e:0000:0000:0000:0000:0000/48 0646:1c5d:3e58:093a:c711:3044:d7f6:623d
2001:0200:063f:0000:0000:0000:0000:0000/48 0646:1c5d:3e58:093a:c711:3044:d7f6:623d
2001:0200:0640:0000:0000:0000:0000:0000/48 0646:1c5d:3e58:093a:c711:3044:d7f6:623d
2001:0200:0641:0000:0000:0000:0000:0000/48 0646:1c5d:3e58:093a:c711:3044:d7f6:623d
2001:0200:0642:0000:0000:0000:0000:0000/48 0646:1c5d:3e58:093a:c711:3044:d7f6:623d
2001:0200:0643:0000:0000:0000:0000:0000/48 0646:1c5d:3e58:093a:c711:3044:d7f6:623d
2001:0200:0644:0000:0000:0000:0000:0000/48 0646:1c5d:3e58:093a:c711:3044:d7f6:623d
2001:0200:0645:0000:0000:0000:0000:0000/48 0646:1c5d:3e58:093a:c711:3044:d7f6:623d
2001:0200:0646:0000:0000:0000:0000:0000/48 0646:1c5d:3e58:093a:c711:3044:d7f6:623d
2001:0200:0647:0000:0000:0000:0000:0000/48 0646:1c5d:3e58:093a:c711:3044:d7f6:623d
2001:0200:0648:0000:0000:0000:0000:0000/48 0646:1c5d:3e58:093a:c711:3044:d7f6:623d
2001:0200:0649:0000:0000:0000:0000:0000/48 0646:1c5d:3e58:093a:c711:3044:d7f6:623d
2001:0200:064a:0000:0000:0000:0000:0000/48 0646:1c5d:3e58:093a:c711:3044:d7f6:623d
2001:0200:064b:0000:0000:0000:0000:0000/48 0646:1c5d:3e58:093a:c711:3044:d7f6:623d
2001:0200:064c:0000:0000:0000:0000:0000/48 0646:1c5d:3e58:093a:c711:3044:d7f6:623d
2001:0200:064d:0000:0000:0000:0000:0000/48 0646:1c5d:3e58:093a:c711:3044:d7f6:623d
2001:0200:064e:0000:0000:0000:0000:0000/48 0646:1c5d:3e58:093a:c711:3044:d7f6:623d
2001:0200:064f:0000:0000:0000:0000:0000/48 0646:1c5d:3e58:093a:c711:3044:d7f6:623d
2001:0200:0650:0000:0000:0000:0000:0000/48 0646:1c5d:3e58:093a:c711:3044:d7f6:623d
2001:0200:0651:0000:0000:0000:0000:0000/48 0646:1c5d:3e58:093a:c711:3044:d7f6:623d
2001:0200:0652:0000:0000:0000:0000:0000/48 0646:1c5d:3e58:093a:c711:3044:d7f6:623d
2001:0200:0653:0000:0000:0000:0000:0000/48 0646:1c5d:3e58:093a:c711:3044:d7f6:623d
2001:0200:0654:0000:0000:0000:0000:0000/48 0646:1c5d:3e58:093a:c711:3044:d7f6:623d
2001:0200:0655:0000:0000:0000:0000:0000/48 0646:1c5d:3e58:093a:c711:3044:d7f6:623d
2001:0200:0656:0000:0000:0000:0000:0000/48 0646:1c5d:3e58:093a:c711:3044:d7f6:623d
2001:0200:0657:0000:0000:0000:0000:0000/48 0646:1c5d:3e58:093a:c711:3044:d7f6:623d
2001:0200:0658:0000:0000:0000:0000:0000/48 0646:1c5d:3e58:093a:c711:3044:d7f6:623d
2001:0200:0659:0000:0000:0000:0000:0000/48 0646:1c5d:3e58:093a:c711:3044:d7f6:623d
2001:0200:065a:0000:0000:0000:0000:0000/48 0646:1c5d:3e58:093a:c711:3044:d7f6:623d
2001:0200:065b:0000:0000:0000:0000:0000/48 0646:1c5d:3e58:093a:c711:3044:d7f6:623d
2001:0200:065c:0000:0000:0000:0000:0000/48 0646:1c5d:3e58:093a:c711:3044:d7f6:623d
2001:0200:065d:0000:0000:0000:0000:0000/48 0646:1c5d:3e58:093a:c711:3044:d7f6:623d
2001:0200:065e:0000:0000:0000:0000:0000/48 0646:1c5d:3e58:093a:c711:3044:d7f6:623d
2001:0200:065f:0000:0000:0000:0000:0000/48 0646:1c5d:3e58:093a:c711:3044:d7f6:623d
2001:0200:0660:0000:0000:0000:0000:0000/48 0646:1c5d:3e58:093a:c711:3044:d7f6:623d
2001:0200:0661:0000:0000:0000:0000:0000/48 0646:1c5d:3e58:093a:c711:3044:d7f6:623d
2001:0200:0662:0000:0000:0000:0000:0000/48 0646:1c5d:3e58:093a:c711:3044:d7f6:623d
2001:0200:0663:0000:0000:0000:0000:0000/48 0646:1c5d:3e58:093a:c711:3044:d7f6:623d
2001:0200:0664:0000:0000:0000:0000:0000/48 0646:1c5d:3e58:093a:c711:3044:d7f6:623d
2001:0200:0665:0000:0000:0000:0000:0000/48 0646:1c5d:3e58:093a:c711:3044:d7f6:623d
2001:0200:0666:0000:0000:0000:0000:0000/48 0646:1c5d:3e58:093a:c711:3044:d7f6:623d
2001:0200:0667:0000:0000:0000:0000:0000/48 0646:1c5d:3e58:093a:c711:3044:d7f6:623d
2001:0200:0668:0000:0000:0000:0000:0000/48 0646:1c5d:3e58:093a:c711:3044:d7f6:623d
2001:0200:0669:0000:0000:0000:0000:0000/48 0646:1c5d:3e58:093a:c711:3044:d7f6:623d
2001:0200:066a:0000:0000:0000:0000:0000/48 0646:1c5d:3e58:093a:c711:3044:d7f6:623d
2001:0200:066b:0000:0000:0000:0000:0000/48 0646:1c5d:3e58:093a:c711:3044:d7f6:623d
2001:0200:066c:0000:0000:0000:0000:0000/48 0646:1c5d:3e58:093a:c711:3044:d7f6:623d
2001:0200:066d:0000:0000:0000:0000:0000/48 0646:1c5d:3e58:093a:c711:3044:d7f6:623d
2001:0200:066e:0000:0000:0000:0000:0000/48 0646:1c5d:3e58:093a:c711:3044:d7f6:623d
2001:0200:066f:0000:0000:0000:0000:0000/48 0646:1c5d:3e58:093a:c711:3044:d7f6:623d
2001:0200:0670:0000:0000:0000:0000:0000/48 0646:1c5d:3e58:093a:c711:3044:d7f6:623d
2001:0200:0671:0000:0000:0000:0000:0000/48 0646:1c5d:3e58:093a:c711:3044:d7f6:623d
2001:0200:0672:0000:0000:0000:0000:0000/48 0646:1c5d:3e58:093a:c711:3044:d7f6:623d
2001:0200:0673:0000:0000:0000:0000:0000/48 0646:1c5d:3e58:093a:c711:3044:d7f6:623d
2001:0200:0674:0000:0000:0000:0000:0000/48 0646:1c5d:3e58:093a:c711:3044:d7f6:623d
2001:0200:0675:0000:0000:0000:0000:0000/48 0646:1c5d:3e58:093a:c711:3044:d7f6:623d
2001:0200:0676:0000:0000:0000:0000:0000/48 0646:1c5d:3e58:093a:c711:3044:d7f6:623d
2001:0200:0677:0000:0000:0000:0000:0000/48 0646:1c5d:3e58:093a:c711:3044:d7f6:623d
2001:0200:0678:0000:0000:0000:0000:0000/48 0646:1c5d:3e58:093a:c711:3044:d7f6:623d
2001:0200:0679:0000:0000:0000:0000:0000/48 0646:1c5d:3e58:093a:c711:3044:d7f6:623d
2001:0200:067a:0000:0000:0000:0000:0000/48 0646:1c5d:3e58:093a:c711:3044:d7f6:623d
2001:0200:067b:0000:0000:0000:0000:0000/48 0646:1c5d:3e58:093a:c711:3044:d7f6:623d
2001:0200:067c:0000:0000:0000:0000:0000/48 0646:1c5d:3e58:093a:c711:3044:d7f6:623d
2001:0200:067d:0000:0000:0000:0000:0000/48 0646:1c5d:3e58:093a:c711:3044:d7f6:623d
2001:0200:067e:0000:0000:0000:0000:0000/48 0646:1c5d:3e58:093a:c711:3044:d7f6:623d
2001:0200:067f:0000:0000:0000:0000:0000/48 0646:1c5d:3e58:093a:c711:3044:d7f6:623d
2001:0200:0680:0000:0000:0000:0000:0000/48 0646:1c5d:3e58:093a:c711:3044:d7f6:623d
2001:0200:0681:0000:0000:0000:0000:0000/48 0646:1c5d:3e58:093a:c711:3044:d7f6:623d
2001:0200:0682:0000:0000:0000:0000:0000/48 0646:1c5d:3e58:093a:c711:3044:d7f6:623d
2001:0200:0683:0000:0000:0000:0000:0000/48 0646:1c5d:3e58:093a:c711:3044:d7f6:623d
2001:0200:0684:0000:0000:0000:0000:0000/48 0646:1c5d:3e58:093a:c711:3044:d7f6:623d
2001:0200:0685:0000:0000:0000:0000:0000/48 0646:1c5d:3e58:093a:c711:3044:d7f6:623d
2001:0200:0686:0000:0000:0000:0000:0000/48 0646:1c5d:3e58:093a:c711:3044:d7f6:623d
2001:0200:0687:0000:0000:0000:0000:0000/48 0646:1c5d:3e58:093a:c711:3044:d7f6:623d
2001:0200:0688:0000:0000:0000:0000:0000/48 0646:1c5d:3e58:093a:c711:3044:d7f6:623d
2001:0200:0689:0000:0000:0000:0000:0000/48 0646:1c5d:3e58:093a:c711:3044:d7f6:623d
2001:0200:068a:0000:0000:0000:0000:0000/48 0646:1c5d:3e58:093a:c711:3044:d7f6:623d
2001:0200:068b:0000:0000:0000:0000:0000/48 0646:1c5d:3e58:093a:c711:3044:d7f6:623d
2001:0200:068c:0000:0000:0000:0000:0000/48 0646:1c5d:3e58:093a:c711:3044:d7f6:623d
2001:0200:068d:0000:0000:0000:0000:0000/48 0646:1c5d:3e58:093a:c711:3044:d7f6:623d
2001:0200:068e:0000:0000:0000:0000:0000/48 0646:1c5d:3e58:093a:c711:3044:d7f6:623d
2001:0200:068f:0000:0000:0000:0000:0000/48 0646:1c5d:3e58:093a:c711:3044:d7f6:623d
2001:0200:0690:0000:0000:0000:0000:0000/48 0646:1c5d:3e58:093a:c711:3044:d7f6:623d
2001:0200:0691:0000:0000:0000:0000:0000/48 0646:1c5d:3e58:093a:c711:3044:d7f6:623d
2001:0200:0692:0000:0000:0000:0000:0000/48 0646:1c5d:3e58:093a:c711:3044:d7f6:623d
2001:0200:0693:0000:0000:0000:0000:0000/48 0646:1c5d:3e58:093a:c711:3044:d7f6:623d
2001:0200:0694:0000:0000:0000:0000:0000/48 0646:1c5d:3e58:093a:c711:3044:d7f6:623d
2001:0200:0695:0000:0000:0000:0000:0000/48 0646:1c5d:3e58:093a:c711:3044:d7f6:623d
2001:0200:0696:0000:0000:0000:0000:0000/48 0646:1c5d:3e58:093a:c711:3044:d7f6:623d
2001:0200:0697:0000:0000:0000:0000:0000/48 0646:1c5d:3e58:093a:c711:3044:d7f6:623d
2001:0200:0698:0000:0000:0000:0000:0000/48 0646:1c5d:3e58:093a:c711:3044:d7f6:623d
2001:0200:0699:0000:0000:0000:0000:0000/48 0646:1c5d:3e58:093a:c711:3044:d7f6:623d
2001:0200:069a:0000:0000:0000:0000:0000/48 0646:1c5d:3e58:093a:c711:3044:d7f6:623d
2001:0200:069b:0000:0000:0000:0000:0000/48 0646:1c5d:3e58:093a:c711:3044:d7f6:623d
2001:0200:069c:0000:0000:0000:0000:0000/48 0646:1c5d:3e58:093a:c711:3044:d7f6:623d
2001:0200:069d:0000:0000:0000:0000:0000/48 0646:1c5d:3e58:093a:c711:3044:d7f6:623d
2001:0200:069e:0000:0000:0000:0000:0000/48 0646:1c5d:3e58:093a:c711:3044:d7f6:623d
2001:0200:069f:0000:0000:0000:0000:0000/48 0646:1c5d:3e58:093a:c711:3044:d7f6:623d
2001:0200:06a0:0000:0000:0000:0000:0000/48 0646:1c5d:3e58:093a:c711:3044:d7f6:623d
2001:0200:06a1:0000:0000:0000:0000:0000/48 0646:1c5d:3e58:093a:c711:3044:d7f6:623d
2001:0200:06a2:0000:0000:0000:0000:0000/48 0646:1c5d:3e58:093a:c711:3044:d7f6:623d
2001:0200:06a3:0000:0000:0000:0000:0000/48 0646:1c5d:3e58:093a:c711:3044:d7f6:623d
2001:0200:06a4:0000:0000:0000:0000:0000/48 0646:1c5d:3e58:093a:c711:3044:d7f6:623d
2001:0200:06a5:0000:0000:0000:0000:0000/48 0646:1c5d:3e58:093a:c711:3044:d7f6:623d
2001:0200:06a6:0000:0000:0000:0000:0000/48 0646:1c5d:3e58:093a:c711:3044:d7f6:623d
2001:0200:06a7:0000:0000:0000:0000:0000/48 0646:1c5d:3e58:093a:c711:3044:d7f6:623d
2001:0200:06a8:0000:0000:0000:0000:0000/48 0646:1c5d:3e58:093a:c711:3044:d7f6:623d
2001:0200:06a9:0000:0000:0000:0000:0000/48 0646:1c5d:3e58:093a:c711:3044:d7f6:623d
2001:0200:06aa:0000:0000:0000:0000:0000/48 0646:1c5d:3e58:093a:c711:3044:d7f6:623d
2001:0200:06ab:0000:0000:0000:0000:0000/48 0646:1c5d:3e58:093a:c711:3044:d7f6:623d
2001:0200:06ac:0000:0000:0000:0000:0000/48 0646:1c5d:3e58:093a:c711:3044:d7f6:623d
2001:0200:06ad:0000:0000:0000:0000:0000/48 0646:1c5d:3e58:093a:c711:3044:d7f6:623d
2001:0200:06ae:0000:0000:0000:0000:0000/48 0646:1c5d:3e58:093a:c711:3044:d7f6:623d
2001:0200:06af:0000:0000:0000:0000:0000/48 0646:1c5d:3e58:093a:c711:3044:d7f6:623d
2001:0200:06b0:0000:0000:0000:0000:0000/48 0646:1c5d:3e58:093a:c711:3044:d7f6:623d
2001:0200:06b1:0000:0000:0000:0000:0000/48 0646:1c5d:3e58:093a:c711:3044:d7f6:623d
2001:0200:06b2:0000:0000:0000:0000:0000/48 0646:1c5d:3e58:093a:c711:3044:d7f6:623d
2001:0200:06b3:0000:0000:0000:0000:0000/48 0646:1c5d:3e58:093a:c711:3044:d7f6:623d
2001:0200:06b4:0000:0000:0000:0000:0000/48 0646:1c5d:3e58:093a:c711:3044:d7f6:623d
2001:0200:06b5:0000:0000:0000:0000:0000/48 0646:1c5d:3e58:093a:c711:3044:d7f6:623d
2001:0200:06b6:0000:0000:0000:0000:0000/48 0646:1c5d:3e58:093a:c711:3044:d7f6:623d
2001:0200:06b7:0000:0000:0000:0000:0000/48 0646:1c5d:3e58:093a:c711:3044:d7f6:623d
2001:0200:06b8:0000:0000:0000:0000:0000/48 0646:1c5d:3e58:093a:c711:3044:d7f6:623d
2001:0200:06b9:0000:0000:0000:0000:0000/48 0646:1c5d:3e58:093a:c711:3044:d7f6:623d
2001:0200:06ba:0000:0000:0000:0000:0000/48 0646:1c5d:3e58:093a:c711:3044:d7f6:623d
2001:0200:06bb:0000:0000:0000:0000:0000/48 0646:1c5d:3e58:093a:c711:3044:d7f6:623d
2001:0200:06bc:0000:0000:0000:0000:0000/48 0646:1c5d:3e58:093a:c711:3044:d7f6:623d
2001:0200:06bd:0000:0000:0000:0000:0000/48 0646:1c5d:3e58:093a:c711:3044:d7f6:623d
2001:0200:06be:0000:0000:0000:0000:0000/48 0646:1c5d:3e58:093a:c711:3044:d7f6:623d
2001:0200:06bf:0000:0000:0000:0000:0000/48 0646:1c5d:3e58:093a:c711:3044:d7f6:623d
2001:0200:06c0:0000:0000:0000:0000:0000/48 0646:1c5d:3e58:093a:c711:3044:d7f6:623d
2001:0200:06c1:0000:0000:0000:0000:0000/48 0646:1c5d:3e58:093a:c711:3044:d7f6:623d
2001:0200:06c2:0000:0000:0000:0000:0000/48 0646:1c5d:3e58:093a:c711:3044:d7f6:623d
2001:0200:06c3:0000:0000:0000:0000:0000/48 0646:1c5d:3e58:093a:c711:3044:d7f6:623d
2001:0200:06c4:0000:0000:0000:0000:0000/48 0646:1c5d:3e58:093a:c711:3044:d7f6:623d
2001:0200:06c5:0000:0000:0000:0000:0000/48 0646:1c5d:3e58:093a:c711:3044:d7f6:623d
2001:0200:06c6:0000:0000:0000:0000:0000/48 0646:1c5d:3e58:093a:c711:3044:d7f6:623d
2001:0200:06c7:0000:0000:0000:0000:0000/48 0646:1c5d:3e58:093a:c711:3044:d7f6:623d
2001:0200:06c8:0000:0000:0000:0000:0000/48 0646:1c5d:3e58:093a:c711:3044:d7f6:623d
2001:0200:06c9:0000:0000:0000:0000:0000/48 0646:1c5d:3e58:093a:c711:3044:d7f6:623d
2001:0200:06ca:0000:0000:0000:0000:0000/48 0646:1c5d:3e58:093a:c711:3044:d7f6:623d
2001:0200:06cb:0000:0000:0000:0000:0000/48 0646:1c5d:3e58:093a:c711:3044:d7f6:623d
2001:0200:06cc:0000:0000:0000:0000:0000/48 0646:1c5d:3e58:093a:c711:3044:d7f6:623d
2001:0200:06cd:0000:0000:0000:0000:0000/48 0646:1c5d:3e58:093a:c711:3044:d7f6:623d
2001:0200:06ce:0000:0000:0000:0000:0000/48 0646:1c5d:3e58:093a:c711:3044:d7f6:623d
2001:0200:06cf:0000:0000:0000:0000:0000/48 0646:1c5d:3e58:093a:c711:3044:d7f6:623d
2001:0200:06d0:0000:0000:0000:0000:0000/48 0646:1c5d:3e58:093a:c711:3044:d7f6:623d
2001:0200:06d1:0000:0000:0000:0000:0000/48 0646:1c5d:3e58:093a:c711:3044:d7f6:623d
2001:0200:06d2:0000:0000:0000:0000:0000/48 0646:1c5d:3e58:093a:c711:3044:d7f6:623d
2001:0200:06d3:0000:0000:0000:0000:0000/48 0646:1c5d:3e58:093a:c711:3044:d7f6:623d
2001:0200:06d4:0000:0000:0000:0000:0000/48 0646:1c5d:3e58:093a:c711:3044:d7f6:623d
2001:0200:06d5:0000:0000:0000:0000:0000/48 0646:1c5d:3e58:093a:c711:3044:d7f6:623d
2001:0200:06d6:0000:0000:0000:0000:0000/48 0646:1c5d:3e58:093a:c711:3044:d7f6:623d
2001:0200:06d7:0000:0000:0000:0000:0000/48 0646:1c5d:3e58:093a:c711:3044:d7f6:623d
2001:0200:06d8:0000:0000:0000:0000:0000/48 0646:1c5d:3e58:093a:c711:3044:d7f6:623d
2001:0200:06d9:0000:0000:0000:0000:0000/48 0646:1c5d:3e58:093a:c711:3044:d7f6:623d
2001:0200:06da:0000:0000:0000:0000:0000/48 0646:1c5d:3e58:093a:c711:3044:d7f6:623d
2001:0200:06db:0000:0000:0000:0000:0000/48 0646:1c5d:3e58:093a:c711:3044:d7f6:623d
2001:0200:06dc:0000:0000:0000:0000:0000/48 0646:1c5d:3e58:093a:c711:3044:d7f6:623d
2001:0200:06dd:0000:0000:0000:0000:0000/48 0646:1c5d:3e58:093a:c711:3044:d7f6:623d
2001:0200:06de:0000:0000:0000:0000:0000/48 0646:1c5d:3e58:093a:c711:3044:d7f6:623d
2001:0200:06df:0000:0000:0000:0000:0000/48 0646:1c5d:3e58:093a:c711:3044:d7f6:623d
2001:0200:06e0:0000:0000:0000:0000:0000/48 0646:1c5d:3e58:093a:c711:3044:d7f6:623d
2001:0200:06e1:0000:0000:0000:0000:0000/48 0646:1c5d:3e58:093a:c711:3044:d7f6:623d
2001:0200:06e2:0000:0000:0000:0000:0000/48 0646:1c5d:3e58:093a:c711:3044:d7f6:623d
2001:0200:06e3:0000:0000:0000:0000:0000/48 0646:1c5d:3e58:093a:c711:3044:d7f6:623d
2001:0200:06e4:0000:0000:0000:0000:0000/48 0646:1c5d:3e58:093a:c711:3044:d7f6:623d
2001:0200:06e5:0000:0000:0000:0000:0000/48 0646:1c5d:3e58:093a:c711:3044:d7f6:623d
2001:0200:06e6:0000:0000:0000:0000:0000/48 0646:1c5d:3e58:093a:c711:3044:d7f6:623d
2001:0200:06e7:0000:0000:0000:0000:0000/48 0646:1c5d:3e58:093a:c711:3044:d7f6:623d
2001:0200:06e8:0000:0000:0000:0000:0000/48 0646:1c5d:3e58:093a:c711:3044:d7f6:623d
2001:0200:06e9:0000:0000:0000:0000:0000/48 0646:1c5d:3e58:093a:c711:3044:d7f6:623d
2001:0200:06ea:0000:0000:0000:0000:0000/48 0646:1c5d:3e58:093a:c711:3044:d7f6:623d
2001:0200:06eb:0000:0000:0000:0000:0000/48 0646:1c5d:3e58:093a:c711:3044:d7f6:623d
2001:0200:06ec:0000:0000:0000:0000:0000/48 0646:1c5d:3e58:093a:c711:3044:d7f6:623d
2001:0200:06ed:0000:0000:0000:0000:0000/48 0646:1c5d:3e58:093a:c711:3044:d7f6:623d
2001:0200:06ee:0000:0000:0000:0000:0000/48 0646:1c5d:3e58:093a:c711:3044:d7f6:623d
2001:0200:06ef:0000:0000:0000:0000:0000/48 0646:1c5d:3e58:093a:c711:3044:d7f6:623d
2001:0200:06f0:0000:0000:0000:0000:0000/48 0646:1c5d:3e58:093a:c711:3044:d7f6:623d
2001:0200:06f1:0000:0000:0000:0000:0000/48 0646:1c5d:3e58:093a:c711:3044:d7f6:623d
2001:0200:06f2:0000:0000:0000:0000:0000/48 0646:1c5d:3e58:093a:c711:3044:d7f6:623d
2001:0200:06f3:0000:0000:0000:0000:0000/48 0646:1c5d:3e58:093a:c711:3044:d7f6:623d
2001:0200:06f4:0000:0000:0000:0000:0000/48 0646:1c5d:3e58:093a:c711:3044:d7f6:623d
2001:0200:06f5:0000:0000:0000:0000:0000/48 0646:1c5d:3e58:093a:c711:3044:d7f6:623d
2001:0200:06f6:0000:0000:0000:0000:0000/48 0646:1c5d:3e58:093a:c711:3044:d7f6:623d
2001:0200:06f7:0000:0000:0000:0000:0000/48 0646:1c5d:3e58:093a:c711:3044:d7f6:623d
2001:0200:06f8:0000:0000:0000:0000:0000/48 0646:1c5d:3e58:093a:c711:3044:d7f6:623d
2001:0200:06f9:0000:0000:0000:0000:0000/48 0646:1c5d:3e58:093a:c711:3044:d7f6:623d
2001:0200:06fa:0000:0000:0000:0000:0000/48 0646:1c5d:3e58:093a:c711:3044:d7f6:623d
2001:0200:06fb:0000:0000:0000:0000:0000/48 0646:1c5d:3e58:093a:c711:3044:d7f6:623d
2001:0200:06fc:0000:0000:0000:0000:0000/48 0646:1c5d:3e58:093a:c711:3044:d7f6:623d
2001:0200:06fd:0000:0000:0000:0000:0000/48 0646:1c5d:3e58:093a:c711:3044:d7f6:623d
2001:0200:06fe:0000:0000:0000:0000:0000/48 0646:1c5d:3e58:093a:c711:3044:d7f6:623d
2001:0200:06ff:0000:0000:0000:0000:0000/48 0646:1c5d:3e58:093a:c711:3044:d7f6:623d
