2001:0200:0000:0000:0000:0000:0000:0000/32  c2ea:98ae:d003:7af5:90d6:fd6e:4c20:d8a4
2001:0200:0600:0000:0000:0000:0000:0000/40  0646:1c5d:3e58:093a:c711:3044:d7f6:623d
2001:0200:0000:1800:0000:0000:0000:0000/64  c5f7:1752:37bf:fe88:a327:6efb:5b2b:703d
2001:0200:0000:0000:0000:0000:0000:0000/24  c26e:c936:1ade:0c1f:d94f:f6b4:be47:2827
1000:0000:0000:0000:0000:0000:0000:0000/8   29ca:a456:24bc:f065:9576:94f6:e0c8:9b16
2001:01e0:0000:0000:0000:0000:0000:0000/32  cd8a:56bd:cd24:2e27:28e6:2cf4:4e09:459f
2001:01e0:4000:0000:0000:0000:0000:0000/48  e0f9:3a7f:9a8e:17ef:74c0:16fb:f362:c16b
2000:0002:0002:0000:0000:0000:0000:0000/64  82e9:b99c:c5ef:dea3:a9dc:bc37:d7af:504a
2001:0000:0000:0000:0000:0000:0000:0000/32  331b:5773:7a24:f934:cedd:3380:39a9:973f
181c:0000:0000:0000:0000:0000:0000:0000/18  d47a:a8e9:970e:459c:1918:9fc8:2665:c7c7
2000:0000:0000:0000:0000:0000:0000:0000/3   ff87:1081:a380:2cbf:dd31:f529:7496:558a
0000:0000:0000:0000:0000:0000:0000:0000/0   1154:b7be:5974:d54f:52d9:58f3:c813:9760
0339:752f:0014:0000:0000:0000:0000:0000/48  27a0:b1f0:25fe:746d:aeb7:aa07:e58c:5abf
001a:f000:0000:0000:0000:0000:0000:0000/24  c112:bf33:d01e:9e0b:e670:dcb8:e6d0:8b2f
0000:0000:0000:0000:0000:0000:0000:0000/8   e045:fc58:01d6:8dd5:ca56:fbe8:5473:802f
0000:0000:0000:0000:0000:0000:0000:0000/24  9777:2211:8b67:18bd:520d:dcde:7c31:89d1
0100:0000:0000:0000:0000:0000:0000:0000/64  fe63:2507:1103:dc42:90c9:9513:37df:443c
0000:2000:0000:0000:0000:0000:0000:0000/20  ec27:1fe3:89b8:9f39:5d4a:d0f6:d164:0b92
0001:1900:2200:001d:0000:0000:0000:0000/64  cea7:749e:61ef:95a3:0de9:4e9e:88f9:bafd
0000:0000:0000:0000:0000:0000:0000:0000/1   61c4:b907:84d7:42da:13cb:83d0:d886:468a
